%YAML 1.1
%TAG !u! tag:unity3d.com,2011:
--- !u!1045 &1
EditorBuildSettings:
  m_ObjectHideFlags: 0
  serializedVersion: 2
  m_Scenes:
  - enabled: 0
    path: 
    guid: 00000000000000000000000000000000
  - enabled: 1
    path: Assets/Scenes/Start Menu.unity
    guid: 68c6778f86a7fe24e80a168014d019cc
  - enabled: 1
    path: Assets/Scenes/Core Game.unity
    guid: 13ca29e2f29973647910f31ee2bdf78d
  - enabled: 1
    path: Assets/Scenes/Win Screen.unity
    guid: 7a35a5e31576bdc4f9762e73cccb7b19
  m_configObjects: {}
