%YAML 1.1
%TAG !u! tag:unity3d.com,2011:
--- !u!114 &11400000
MonoBehaviour:
  m_ObjectHideFlags: 0
  m_CorrespondingSourceObject: {fileID: 0}
  m_PrefabInstance: {fileID: 0}
  m_PrefabAsset: {fileID: 0}
  m_GameObject: {fileID: 0}
  m_Enabled: 1
  m_EditorHideFlags: 0
  m_Script: {fileID: 11500000, guid: ede1cf05a9dc7964f816e2ff5bf35ec5, type: 3}
  m_Name: A6.Dark Room
  m_EditorClassIdentifier: 
  storyText: "Dark Room\r\nRight, well, that took far longer than anticipated but
    the lock is off and the door opened. Thank goodness for the Pumping Station being
    so loud. \r\n\r\nYou're in a dark room. You hear people yelling over the top of
    the combustion boilers. You catch some words. THUNK, THUNK, \"shut off the valves...\",
    THUNK THUNK, \"...get out in time?\", THUNK THUNK, \"...massive pressure\", THUNK
    THUNK \"...for glory\"... THUNK THUNK...\r\n\r\nWhat next, Adventurer?\r\n\r\n1.
    Get closer to the people speaking.\r\n2. Ignore them, keep pushing for the airship."
  nextStates:
  - {fileID: 11400000, guid: 9c202f5e3ae9bd34996ddc09e273a2b5, type: 2}
  - {fileID: 11400000, guid: 0ae0e04ad2855e94e8ce3505512a6488, type: 2}
