%YAML 1.1
%TAG !u! tag:unity3d.com,2011:
--- !u!114 &11400000
MonoBehaviour:
  m_ObjectHideFlags: 0
  m_CorrespondingSourceObject: {fileID: 0}
  m_PrefabInstance: {fileID: 0}
  m_PrefabAsset: {fileID: 0}
  m_GameObject: {fileID: 0}
  m_Enabled: 1
  m_EditorHideFlags: 0
  m_Script: {fileID: 11500000, guid: ede1cf05a9dc7964f816e2ff5bf35ec5, type: 3}
  m_Name: B1.Opening Door
  m_EditorClassIdentifier: 
  storyText: "Opening Door\r\nYou wait it out. After, perhaps, 20 minutes you hear
    feet shuffling. Keys jangle. The door starts to unlock.\r\n\r\nWhat to do?\r\n\r\n1.
    Wait a little longer, it seemed to work last time.\r\n2. Rush the door and thrust
    a handful of knuckles through the chestplate of whoever enters."
  nextStates:
  - {fileID: 11400000, guid: f1a68f4460a463442b4e9edcc2209950, type: 2}
  - {fileID: 11400000, guid: 9f3df706f645d7c408891627930c4edf, type: 2}
