%YAML 1.1
%TAG !u! tag:unity3d.com,2011:
--- !u!114 &11400000
MonoBehaviour:
  m_ObjectHideFlags: 0
  m_CorrespondingSourceObject: {fileID: 0}
  m_PrefabInstance: {fileID: 0}
  m_PrefabAsset: {fileID: 0}
  m_GameObject: {fileID: 0}
  m_Enabled: 1
  m_EditorHideFlags: 0
  m_Script: {fileID: 11500000, guid: ede1cf05a9dc7964f816e2ff5bf35ec5, type: 3}
  m_Name: B3.Escape
  m_EditorClassIdentifier: 
  storyText: "B3. Escape\r\nThe door opens and then... nothing. You peak outside and
    there is nobody there. \r\n\r\nWell, thats odd.\r\n\r\nHave you just been freed?
    And by whom? And why?\r\n\r\nNo time for that now. We have escaping to do. Whats
    the plan?\r\n\r\n1. Wait a bit longer.\r\n2. Get running."
  nextStates:
  - {fileID: 11400000, guid: 41b8f5c3966ff254eade6eaf5171c2fa, type: 2}
  - {fileID: 11400000, guid: 76ea24e125637b14fa92fc1ec58b2aed, type: 2}
