%YAML 1.1
%TAG !u! tag:unity3d.com,2011:
--- !u!114 &11400000
MonoBehaviour:
  m_ObjectHideFlags: 0
  m_CorrespondingSourceObject: {fileID: 0}
  m_PrefabInstance: {fileID: 0}
  m_PrefabAsset: {fileID: 0}
  m_GameObject: {fileID: 0}
  m_Enabled: 1
  m_EditorHideFlags: 0
  m_Script: {fileID: 11500000, guid: ede1cf05a9dc7964f816e2ff5bf35ec5, type: 3}
  m_Name: B4.Friendly Fire
  m_EditorClassIdentifier: 
  storyText: "Friendly Fire\r\nYou tear off a piece of metal framing from your leather
    airship pilot armour and hold it ready as a shiv of sorts. As the door opens you
    rush at your captor, leaping like a crazy person and hollering a primal scream
    of rage.\r\n\r\nPayback time for your beating and from all the pain these dirty
    Festers have caused your family. You drive home your metal shiv. You hear the
    crunch of bones and feel the slice of flesh. \r\n\r\nAfter a brief struggle, there
    is stillness. You look down and see... oh my lord... you see... yourself? What?
    How?\r\n\r\n1. Continue..."
  nextStates:
  - {fileID: 11400000, guid: 41b8f5c3966ff254eade6eaf5171c2fa, type: 2}
