%YAML 1.1
%TAG !u! tag:unity3d.com,2011:
--- !u!114 &11400000
MonoBehaviour:
  m_ObjectHideFlags: 0
  m_CorrespondingSourceObject: {fileID: 0}
  m_PrefabInstance: {fileID: 0}
  m_PrefabAsset: {fileID: 0}
  m_GameObject: {fileID: 0}
  m_Enabled: 1
  m_EditorHideFlags: 0
  m_Script: {fileID: 11500000, guid: ede1cf05a9dc7964f816e2ff5bf35ec5, type: 3}
  m_Name: B5.Waiting
  m_EditorClassIdentifier: 
  storyText: "Waiting\r\nNot much happens, what would you like to do?\r\n\r\n1. Get
    running."
  nextStates:
  - {fileID: 11400000, guid: 76ea24e125637b14fa92fc1ec58b2aed, type: 2}
